Portfolio 8 - Study 2 Write up
…
Bringing in the data

study1 <- read_csv("Study2_data_R_cleaned.csv")

# Ensuring the dataframe is a tibble.
as_tibble(study1)
## # A tibble: 140 x 141
##    Finished.x participant_id manip_interest manip_personal manip_encourage
##         <dbl> <chr>                   <dbl>          <dbl>           <dbl>
##  1          1 102A                        4              4               4
##  2          1 102B                        4              2               2
##  3          1 102C                        3              2               2
##  4          1 102D                        4              3               2
##  5          1 103A                        4              1               2
##  6          1 103B                        3              1               1
##  7          1 103C                        2              2               2
##  8          1 104A                        3              2               4
##  9          1 104B                        2              4               4
## 10          1 104C                        3              3               4
## # ... with 130 more rows, and 136 more variables: manip_help_think <dbl>,
## #   manip_represent <dbl>, manip_suprise <dbl>, group_talk <dbl>,
## #   group_engage <dbl>, group_enjoy <dbl>, group_fun <dbl>, self_close <dbl>,
## #   self_like <dbl>, group_like <dbl>, group_tell <dbl>, group_share <dbl>,
## #   group_honest <dbl>, self_learn_about <dbl>, self_tell <dbl>,
## #   self_share <dbl>, self_honest <dbl>, group_learn_about <dbl>,
## #   IOS_slider_1 <dbl>, know_prior_study <dbl>, study_partic_total <dbl>, ...
…
